{
  "features": [
    {
      "geometry": {
        "type": "Point",
        "coordinates": [
          -122.272209,
          47.523243
        ]
      },
      "properties": {
        "onestop_id": "s-c23n3e7ffq-shendersonst~48thaves",
        "created_at": "2016-05-04T22:36:30.689Z",
        "updated_at": "2018-11-06T02:57:53.099Z",
        "tags": {
          "zone_id": "1",
          "osm_way_id": "263733014"
        },
        "created_or_updated_in_changeset_id": 13037,
        "name": "S Henderson St \u0026 48th Ave S",
        "timezone": "America/Los_Angeles",
        "osm_way_id": 263733014,
        "served_by_vehicle_types": [
          "bus"
        ],
        "parent_stop_onestop_id": null,
        "wheelchair_boarding": null,
        "geometry_reversegeo": null,
        "geometry_centroid": {
          "type": "Point",
          "coordinates": [
            -122.272209,
            47.523243
          ]
        },
        "operators_serving_stop": [
          {
            "operator_name": "King County Metro",
            "operator_onestop_id": "o-c23-metrotransit"
          }
        ],
        "routes_serving_stop": [
          {
            "operator_name": "King County Metro",
            "operator_onestop_id": "o-c23-metrotransit",
            "route_name": "9",
            "route_onestop_id": "r-c23n9-9"
          }
        ],
        "title": "s-c23n3e7ffq-shendersonst~48thaves"
      },
      "type": "Feature",
      "id": "s-c23n3e7ffq-shendersonst~48thaves"
    },
    {
      "geometry": {
        "type": "Point",
        "coordinates": [
          -122.270554,
          47.5233765
        ]
      },
      "properties": {
        "onestop_id": "s-c23n3em79x-shendersonst~rainieraves",
        "created_at": "2016-05-04T22:36:31.798Z",
        "updated_at": "2018-11-06T02:57:44.947Z",
        "tags": {
          "zone_id": "1",
          "osm_way_id": "263733014"
        },
        "created_or_updated_in_changeset_id": 13037,
        "name": "S Henderson St \u0026 Rainier Ave S",
        "timezone": "America/Los_Angeles",
        "osm_way_id": 263733014,
        "served_by_vehicle_types": [
          "bus"
        ],
        "parent_stop_onestop_id": null,
        "wheelchair_boarding": null,
        "geometry_reversegeo": null,
        "geometry_centroid": {
          "type": "Point",
          "coordinates": [
            -122.270554,
            47.5233765
          ]
        },
        "operators_serving_stop": [
          {
            "operator_name": "King County Metro",
            "operator_onestop_id": "o-c23-metrotransit"
          }
        ],
        "routes_serving_stop": [
          {
            "operator_name": "King County Metro",
            "operator_onestop_id": "o-c23-metrotransit",
            "route_name": "9",
            "route_onestop_id": "r-c23n9-9"
          }
        ],
        "title": "s-c23n3em79x-shendersonst~rainieraves"
      },
      "type": "Feature",
      "id": "s-c23n3em79x-shendersonst~rainieraves"
    },
    {
      "geometry": {
        "type": "Point",
        "coordinates": [
          -122.276894,
          47.5233841
        ]
      },
      "properties": {
        "onestop_id": "s-c23n3e2evb-shendersonst~rentonaves",
        "created_at": "2016-05-04T22:36:31.803Z",
        "updated_at": "2018-11-06T02:57:45.200Z",
        "tags": {
          "zone_id": "1",
          "osm_way_id": "462701466"
        },
        "created_or_updated_in_changeset_id": 13037,
        "name": "S Henderson St \u0026 Renton Ave S",
        "timezone": "America/Los_Angeles",
        "osm_way_id": 462701466,
        "served_by_vehicle_types": [
          "bus"
        ],
        "parent_stop_onestop_id": null,
        "wheelchair_boarding": null,
        "geometry_reversegeo": null,
        "geometry_centroid": {
          "type": "Point",
          "coordinates": [
            -122.276894,
            47.5233841
          ]
        },
        "operators_serving_stop": [
          {
            "operator_name": "King County Metro",
            "operator_onestop_id": "o-c23-metrotransit"
          }
        ],
        "routes_serving_stop": [
          {
            "operator_name": "King County Metro",
            "operator_onestop_id": "o-c23-metrotransit",
            "route_name": "9",
            "route_onestop_id": "r-c23n9-9"
          }
        ],
        "title": "s-c23n3e2evb-shendersonst~rentonaves"
      },
      "type": "Feature",
      "id": "s-c23n3e2evb-shendersonst~rentonaves"
    },
    {
      "geometry": {
        "type": "Point",
        "coordinates": [
          -122.278793,
          47.5236549
        ]
      },
      "properties": {
        "onestop_id": "s-c23n37rm3e-martinlkingjrways~shendersonst",
        "created_at": "2016-05-04T22:36:32.823Z",
        "updated_at": "2018-11-06T02:57:45.292Z",
        "tags": {
          "zone_id": "1",
          "osm_way_id": "203687178"
        },
        "created_or_updated_in_changeset_id": 13037,
        "name": "Martin L King Jr Way S \u0026 S Henderson St",
        "timezone": "America/Los_Angeles",
        "osm_way_id": 203687178,
        "served_by_vehicle_types": [
          "bus"
        ],
        "parent_stop_onestop_id": null,
        "wheelchair_boarding": null,
        "geometry_reversegeo": null,
        "geometry_centroid": {
          "type": "Point",
          "coordinates": [
            -122.278793,
            47.5236549
          ]
        },
        "operators_serving_stop": [
          {
            "operator_name": "King County Metro",
            "operator_onestop_id": "o-c23-metrotransit"
          }
        ],
        "routes_serving_stop": [
          {
            "operator_name": "King County Metro",
            "operator_onestop_id": "o-c23-metrotransit",
            "route_name": "9",
            "route_onestop_id": "r-c23n9-9"
          }
        ],
        "title": "s-c23n37rm3e-martinlkingjrways~shendersonst"
      },
      "type": "Feature",
      "id": "s-c23n37rm3e-martinlkingjrways~shendersonst"
    },
    {
      "geometry": {
        "type": "Point",
        "coordinates": [
          -122.316772,
          47.5991364
        ]
      },
      "properties": {
        "onestop_id": "s-c23nb95sux-sjacksonst~12thaves",
        "created_at": "2016-05-04T22:36:58.759Z",
        "updated_at": "2018-11-06T02:57:50.584Z",
        "tags": {
          "zone_id": "1",
          "osm_way_id": "333370569"
        },
        "created_or_updated_in_changeset_id": 13037,
        "name": "S Jackson St \u0026 12th Ave S",
        "timezone": "America/Los_Angeles",
        "osm_way_id": 333370569,
        "served_by_vehicle_types": [
          "bus"
        ],
        "parent_stop_onestop_id": null,
        "wheelchair_boarding": null,
        "geometry_reversegeo": null,
        "geometry_centroid": {
          "type": "Point",
          "coordinates": [
            -122.316772,
            47.5991364
          ]
        },
        "operators_serving_stop": [
          {
            "operator_name": "King County Metro",
            "operator_onestop_id": "o-c23-metrotransit"
          }
        ],
        "routes_serving_stop": [
          {
            "operator_name": "King County Metro",
            "operator_onestop_id": "o-c23-metrotransit",
            "route_name": "9",
            "route_onestop_id": "r-c23n9-9"
          }
        ],
        "title": "s-c23nb95sux-sjacksonst~12thaves"
      },
      "type": "Feature",
      "id": "s-c23nb95sux-sjacksonst~12thaves"
    },
    {
      "geometry": {
        "type": "Point",
        "coordinates": [
          -122.318123,
          47.6018639
        ]
      },
      "properties": {
        "onestop_id": "s-c23nb9dsvn-borenave~eyeslerway",
        "created_at": "2016-05-04T22:38:13.550Z",
        "updated_at": "2018-11-06T03:07:04.615Z",
        "tags": {
          "zone_id": "1",
          "osm_way_id": "425646007"
        },
        "created_or_updated_in_changeset_id": 13037,
        "name": "Boren Ave \u0026 E Yesler Way",
        "timezone": "America/Los_Angeles",
        "osm_way_id": 425646007,
        "served_by_vehicle_types": [
          "bus"
        ],
        "parent_stop_onestop_id": null,
        "wheelchair_boarding": null,
        "geometry_reversegeo": null,
        "geometry_centroid": {
          "type": "Point",
          "coordinates": [
            -122.318123,
            47.6018639
          ]
        },
        "operators_serving_stop": [
          {
            "operator_name": "King County Metro",
            "operator_onestop_id": "o-c23-metrotransit"
          }
        ],
        "routes_serving_stop": [
          {
            "operator_name": "King County Metro",
            "operator_onestop_id": "o-c23-metrotransit",
            "route_name": "9",
            "route_onestop_id": "r-c23n9-9"
          }
        ],
        "title": "s-c23nb9dsvn-borenave~eyeslerway"
      },
      "type": "Feature",
      "id": "s-c23nb9dsvn-borenave~eyeslerway"
    },
    {
      "geometry": {
        "type": "Point",
        "coordinates": [
          -122.317108,
          47.5994377
        ]
      },
      "properties": {
        "onestop_id": "s-c23nb95quf-12thaves~sjacksonst",
        "created_at": "2016-05-04T22:38:13.555Z",
        "updated_at": "2018-11-06T03:07:02.670Z",
        "tags": {
          "zone_id": "1",
          "osm_way_id": "332223481"
        },
        "created_or_updated_in_changeset_id": 13037,
        "name": "12th Ave S \u0026 S Jackson St",
        "timezone": "America/Los_Angeles",
        "osm_way_id": 332223481,
        "served_by_vehicle_types": [
          "bus"
        ],
        "parent_stop_onestop_id": null,
        "wheelchair_boarding": null,
        "geometry_reversegeo": null,
        "geometry_centroid": {
          "type": "Point",
          "coordinates": [
            -122.317108,
            47.5994377
          ]
        },
        "operators_serving_stop": [
          {
            "operator_name": "King County Metro",
            "operator_onestop_id": "o-c23-metrotransit"
          }
        ],
        "routes_serving_stop": [
          {
            "operator_name": "King County Metro",
            "operator_onestop_id": "o-c23-metrotransit",
            "route_name": "9",
            "route_onestop_id": "r-c23n9-9"
          }
        ],
        "title": "s-c23nb95quf-12thaves~sjacksonst"
      },
      "type": "Feature",
      "id": "s-c23nb95quf-12thaves~sjacksonst"
    },
    {
      "geometry": {
        "type": "Point",
        "coordinates": [
          -122.31797,
          47.6019592
        ]
      },
      "properties": {
        "onestop_id": "s-c23nb9dv88-borenave~eyeslerway",
        "created_at": "2016-05-04T22:38:14.470Z",
        "updated_at": "2018-11-06T03:07:02.769Z",
        "tags": {
          "zone_id": "1",
          "osm_way_id": "362644210"
        },
        "created_or_updated_in_changeset_id": 13037,
        "name": "Boren Ave \u0026 E Yesler Way",
        "timezone": "America/Los_Angeles",
        "osm_way_id": 362644210,
        "served_by_vehicle_types": [
          "bus"
        ],
        "parent_stop_onestop_id": null,
        "wheelchair_boarding": null,
        "geometry_reversegeo": null,
        "geometry_centroid": {
          "type": "Point",
          "coordinates": [
            -122.31797,
            47.6019592
          ]
        },
        "operators_serving_stop": [
          {
            "operator_name": "King County Metro",
            "operator_onestop_id": "o-c23-metrotransit"
          }
        ],
        "routes_serving_stop": [
          {
            "operator_name": "King County Metro",
            "operator_onestop_id": "o-c23-metrotransit",
            "route_name": "9",
            "route_onestop_id": "r-c23n9-9"
          }
        ],
        "title": "s-c23nb9dv88-borenave~eyeslerway"
      },
      "type": "Feature",
      "id": "s-c23nb9dv88-borenave~eyeslerway"
    },
    {
      "geometry": {
        "type": "Point",
        "coordinates": [
          -122.297112,
          47.576828
        ]
      },
      "properties": {
        "onestop_id": "s-c23n9j1ud7-rainieraves~sstevensst",
        "created_at": "2016-05-04T22:38:29.271Z",
        "updated_at": "2018-11-06T02:57:51.116Z",
        "tags": {
          "zone_id": "1",
          "osm_way_id": "228177081"
        },
        "created_or_updated_in_changeset_id": 13037,
        "name": "Rainier Ave S \u0026 S Forest St - Bay 4",
        "timezone": "America/Los_Angeles",
        "osm_way_id": 228177081,
        "served_by_vehicle_types": [
          "bus"
        ],
        "parent_stop_onestop_id": null,
        "wheelchair_boarding": null,
        "geometry_reversegeo": null,
        "geometry_centroid": {
          "type": "Point",
          "coordinates": [
            -122.297112,
            47.576828
          ]
        },
        "operators_serving_stop": [
          {
            "operator_name": "King County Metro",
            "operator_onestop_id": "o-c23-metrotransit"
          }
        ],
        "routes_serving_stop": [
          {
            "operator_name": "King County Metro",
            "operator_onestop_id": "o-c23-metrotransit",
            "route_name": "9",
            "route_onestop_id": "r-c23n9-9"
          }
        ],
        "title": "s-c23n9j1ud7-rainieraves~sstevensst"
      },
      "type": "Feature",
      "id": "s-c23n9j1ud7-rainieraves~sstevensst"
    },
    {
      "geometry": {
        "type": "Point",
        "coordinates": [
          -122.302299,
          47.583931
        ]
      },
      "properties": {
        "onestop_id": "s-c23n8yqhmx-rainieraves~swalkerst",
        "created_at": "2016-05-04T22:38:30.216Z",
        "updated_at": "2018-11-06T02:57:47.141Z",
        "tags": {
          "zone_id": "1",
          "osm_way_id": "607514445"
        },
        "created_or_updated_in_changeset_id": 13037,
        "name": "Rainier Ave S \u0026 S Walker St",
        "timezone": "America/Los_Angeles",
        "osm_way_id": 607514445,
        "served_by_vehicle_types": [
          "bus"
        ],
        "parent_stop_onestop_id": null,
        "wheelchair_boarding": null,
        "geometry_reversegeo": null,
        "geometry_centroid": {
          "type": "Point",
          "coordinates": [
            -122.302299,
            47.583931
          ]
        },
        "operators_serving_stop": [
          {
            "operator_name": "King County Metro",
            "operator_onestop_id": "o-c23-metrotransit"
          }
        ],
        "routes_serving_stop": [
          {
            "operator_name": "King County Metro",
            "operator_onestop_id": "o-c23-metrotransit",
            "route_name": "9",
            "route_onestop_id": "r-c23n9-9"
          }
        ],
        "title": "s-c23n8yqhmx-rainieraves~swalkerst"
      },
      "type": "Feature",
      "id": "s-c23n8yqhmx-rainieraves~swalkerst"
    },
    {
      "geometry": {
        "type": "Point",
        "coordinates": [
          -122.320946,
          47.6185379
        ]
      },
      "properties": {
        "onestop_id": "s-c23nbs8w56-broadway~edennyway",
        "created_at": "2016-05-04T22:38:30.771Z",
        "updated_at": "2018-11-06T03:08:48.718Z",
        "tags": {
          "zone_id": "1",
          "osm_way_id": "599441017"
        },
        "created_or_updated_in_changeset_id": 13037,
        "name": "Broadway \u0026 E Denny Way",
        "timezone": "America/Los_Angeles",
        "osm_way_id": 599441017,
        "served_by_vehicle_types": [
          "bus"
        ],
        "parent_stop_onestop_id": null,
        "wheelchair_boarding": null,
        "geometry_reversegeo": null,
        "geometry_centroid": {
          "type": "Point",
          "coordinates": [
            -122.320946,
            47.6185379
          ]
        },
        "operators_serving_stop": [
          {
            "operator_name": "King County Metro",
            "operator_onestop_id": "o-c23-metrotransit"
          }
        ],
        "routes_serving_stop": [
          {
            "operator_name": "King County Metro",
            "operator_onestop_id": "o-c23-metrotransit",
            "route_name": "9",
            "route_onestop_id": "r-c23n9-9"
          }
        ],
        "title": "s-c23nbs8w56-broadway~edennyway"
      },
      "type": "Feature",
      "id": "s-c23nbs8w56-broadway~edennyway"
    },
    {
      "geometry": {
        "type": "Point",
        "coordinates": [
          -122.320923,
          47.6161919
        ]
      },
      "properties": {
        "onestop_id": "s-c23nbs287v-broadway~epinest",
        "created_at": "2016-05-04T22:38:30.838Z",
        "updated_at": "2018-11-06T03:08:48.889Z",
        "tags": {
          "zone_id": "1",
          "osm_way_id": "65588113"
        },
        "created_or_updated_in_changeset_id": 13037,
        "name": "Broadway \u0026 E Pine St",
        "timezone": "America/Los_Angeles",
        "osm_way_id": 65588113,
        "served_by_vehicle_types": [
          "bus"
        ],
        "parent_stop_onestop_id": null,
        "wheelchair_boarding": null,
        "geometry_reversegeo": null,
        "geometry_centroid": {
          "type": "Point",
          "coordinates": [
            -122.320923,
            47.6161919
          ]
        },
        "operators_serving_stop": [
          {
            "operator_name": "King County Metro",
            "operator_onestop_id": "o-c23-metrotransit"
          }
        ],
        "routes_serving_stop": [
          {
            "operator_name": "King County Metro",
            "operator_onestop_id": "o-c23-metrotransit",
            "route_name": "9",
            "route_onestop_id": "r-c23n9-9"
          }
        ],
        "title": "s-c23nbs287v-broadway~epinest"
      },
      "type": "Feature",
      "id": "s-c23nbs287v-broadway~epinest"
    },
    {
      "geometry": {
        "type": "Point",
        "coordinates": [
          -122.320885,
          47.6141396
        ]
      },
      "properties": {
        "onestop_id": "s-c23nbebsky-broadway~epikest",
        "created_at": "2016-05-04T22:38:30.933Z",
        "updated_at": "2018-11-06T03:08:49.031Z",
        "tags": {
          "zone_id": "1",
          "osm_way_id": "265352909"
        },
        "created_or_updated_in_changeset_id": 13037,
        "name": "Broadway \u0026 E Pike St",
        "timezone": "America/Los_Angeles",
        "osm_way_id": 265352909,
        "served_by_vehicle_types": [
          "bus"
        ],
        "parent_stop_onestop_id": null,
        "wheelchair_boarding": null,
        "geometry_reversegeo": null,
        "geometry_centroid": {
          "type": "Point",
          "coordinates": [
            -122.320885,
            47.6141396
          ]
        },
        "operators_serving_stop": [
          {
            "operator_name": "King County Metro",
            "operator_onestop_id": "o-c23-metrotransit"
          },
          {
            "operator_name": "City of Seattle",
            "operator_onestop_id": "o-c23nb-cityofseattle"
          }
        ],
        "routes_serving_stop": [
          {
            "operator_name": "King County Metro",
            "operator_onestop_id": "o-c23-metrotransit",
            "route_name": "9",
            "route_onestop_id": "r-c23n9-9"
          }
        ],
        "title": "s-c23nbebsky-broadway~epikest"
      },
      "type": "Feature",
      "id": "s-c23nbebsky-broadway~epikest"
    },
    {
      "geometry": {
        "type": "Point",
        "coordinates": [
          -122.320885,
          47.6127129
        ]
      },
      "properties": {
        "onestop_id": "s-c23nbe8sjh-broadway~eunionst",
        "created_at": "2016-05-04T22:38:31.034Z",
        "updated_at": "2018-11-06T03:08:49.105Z",
        "tags": {
          "zone_id": "1",
          "osm_way_id": "265352909"
        },
        "created_or_updated_in_changeset_id": 13037,
        "name": "Broadway \u0026 E Union St",
        "timezone": "America/Los_Angeles",
        "osm_way_id": 265352909,
        "served_by_vehicle_types": [
          "bus"
        ],
        "parent_stop_onestop_id": null,
        "wheelchair_boarding": null,
        "geometry_reversegeo": null,
        "geometry_centroid": {
          "type": "Point",
          "coordinates": [
            -122.320885,
            47.6127129
          ]
        },
        "operators_serving_stop": [
          {
            "operator_name": "King County Metro",
            "operator_onestop_id": "o-c23-metrotransit"
          }
        ],
        "routes_serving_stop": [
          {
            "operator_name": "King County Metro",
            "operator_onestop_id": "o-c23-metrotransit",
            "route_name": "9",
            "route_onestop_id": "r-c23n9-9"
          }
        ],
        "title": "s-c23nbe8sjh-broadway~eunionst"
      },
      "type": "Feature",
      "id": "s-c23nbe8sjh-broadway~eunionst"
    },
    {
      "geometry": {
        "type": "Point",
        "coordinates": [
          -122.320869,
          47.6099091
        ]
      },
      "properties": {
        "onestop_id": "s-c23nbe0ev4-broadway~marionst",
        "created_at": "2016-05-04T22:38:31.162Z",
        "updated_at": "2018-11-06T03:08:49.207Z",
        "tags": {
          "zone_id": "1",
          "osm_way_id": "353690151"
        },
        "created_or_updated_in_changeset_id": 13037,
        "name": "Broadway \u0026 Marion St",
        "timezone": "America/Los_Angeles",
        "osm_way_id": 353690151,
        "served_by_vehicle_types": [
          "bus"
        ],
        "parent_stop_onestop_id": null,
        "wheelchair_boarding": null,
        "geometry_reversegeo": null,
        "geometry_centroid": {
          "type": "Point",
          "coordinates": [
            -122.320869,
            47.6099091
          ]
        },
        "operators_serving_stop": [
          {
            "operator_name": "King County Metro",
            "operator_onestop_id": "o-c23-metrotransit"
          },
          {
            "operator_name": "City of Seattle",
            "operator_onestop_id": "o-c23nb-cityofseattle"
          }
        ],
        "routes_serving_stop": [
          {
            "operator_name": "King County Metro",
            "operator_onestop_id": "o-c23-metrotransit",
            "route_name": "9",
            "route_onestop_id": "r-c23n9-9"
          }
        ],
        "title": "s-c23nbe0ev4-broadway~marionst"
      },
      "type": "Feature",
      "id": "s-c23nbe0ev4-broadway~marionst"
    },
    {
      "geometry": {
        "type": "Point",
        "coordinates": [
          -122.320854,
          47.6053848
        ]
      },
      "properties": {
        "onestop_id": "s-c23nbd29mw-broadway~terracest",
        "created_at": "2016-05-04T22:38:31.235Z",
        "updated_at": "2018-11-06T03:08:49.290Z",
        "tags": {
          "zone_id": "1",
          "osm_way_id": "428088886"
        },
        "created_or_updated_in_changeset_id": 13037,
        "name": "Broadway \u0026 Terrace St",
        "timezone": "America/Los_Angeles",
        "osm_way_id": 428088886,
        "served_by_vehicle_types": [
          "bus"
        ],
        "parent_stop_onestop_id": null,
        "wheelchair_boarding": null,
        "geometry_reversegeo": null,
        "geometry_centroid": {
          "type": "Point",
          "coordinates": [
            -122.320854,
            47.6053848
          ]
        },
        "operators_serving_stop": [
          {
            "operator_name": "King County Metro",
            "operator_onestop_id": "o-c23-metrotransit"
          }
        ],
        "routes_serving_stop": [
          {
            "operator_name": "King County Metro",
            "operator_onestop_id": "o-c23-metrotransit",
            "route_name": "9",
            "route_onestop_id": "r-c23n9-9"
          }
        ],
        "title": "s-c23nbd29mw-broadway~terracest"
      },
      "type": "Feature",
      "id": "s-c23nbd29mw-broadway~terracest"
    },
    {
      "geometry": {
        "type": "Point",
        "coordinates": [
          -122.320648,
          47.6054497
        ]
      },
      "properties": {
        "onestop_id": "s-c23nbd2cf7-broadway~eterracest",
        "created_at": "2016-05-04T22:38:31.336Z",
        "updated_at": "2018-11-06T03:08:47.453Z",
        "tags": {
          "zone_id": "1",
          "osm_way_id": "440887827"
        },
        "created_or_updated_in_changeset_id": 13037,
        "name": "Broadway \u0026 E Terrace St",
        "timezone": "America/Los_Angeles",
        "osm_way_id": 440887827,
        "served_by_vehicle_types": [
          "bus"
        ],
        "parent_stop_onestop_id": null,
        "wheelchair_boarding": null,
        "geometry_reversegeo": null,
        "geometry_centroid": {
          "type": "Point",
          "coordinates": [
            -122.320648,
            47.6054497
          ]
        },
        "operators_serving_stop": [
          {
            "operator_name": "King County Metro",
            "operator_onestop_id": "o-c23-metrotransit"
          },
          {
            "operator_name": "City of Seattle",
            "operator_onestop_id": "o-c23nb-cityofseattle"
          }
        ],
        "routes_serving_stop": [
          {
            "operator_name": "King County Metro",
            "operator_onestop_id": "o-c23-metrotransit",
            "route_name": "9",
            "route_onestop_id": "r-c23n9-9"
          }
        ],
        "title": "s-c23nbd2cf7-broadway~eterracest"
      },
      "type": "Feature",
      "id": "s-c23nbd2cf7-broadway~eterracest"
    },
    {
      "geometry": {
        "type": "Point",
        "coordinates": [
          -122.320663,
          47.610157
        ]
      },
      "properties": {
        "onestop_id": "s-c23nbe0v3b-broadway~emarionst",
        "created_at": "2016-05-04T22:38:31.422Z",
        "updated_at": "2018-11-06T03:08:47.462Z",
        "tags": {
          "zone_id": "1",
          "osm_way_id": "440887827"
        },
        "created_or_updated_in_changeset_id": 13037,
        "name": "Broadway \u0026 E Marion St",
        "timezone": "America/Los_Angeles",
        "osm_way_id": 440887827,
        "served_by_vehicle_types": [
          "bus"
        ],
        "parent_stop_onestop_id": null,
        "wheelchair_boarding": null,
        "geometry_reversegeo": null,
        "geometry_centroid": {
          "type": "Point",
          "coordinates": [
            -122.320663,
            47.610157
          ]
        },
        "operators_serving_stop": [
          {
            "operator_name": "King County Metro",
            "operator_onestop_id": "o-c23-metrotransit"
          },
          {
            "operator_name": "City of Seattle",
            "operator_onestop_id": "o-c23nb-cityofseattle"
          }
        ],
        "routes_serving_stop": [
          {
            "operator_name": "King County Metro",
            "operator_onestop_id": "o-c23-metrotransit",
            "route_name": "9",
            "route_onestop_id": "r-c23n9-9"
          }
        ],
        "title": "s-c23nbe0v3b-broadway~emarionst"
      },
      "type": "Feature",
      "id": "s-c23nbe0v3b-broadway~emarionst"
    },
    {
      "geometry": {
        "type": "Point",
        "coordinates": [
          -122.320679,
          47.612896
        ]
      },
      "properties": {
        "onestop_id": "s-c23nbe8v1z-broadway~eunionst",
        "created_at": "2016-05-04T22:38:31.487Z",
        "updated_at": "2018-11-06T03:08:47.471Z",
        "tags": {
          "zone_id": "1",
          "osm_way_id": "440887827"
        },
        "created_or_updated_in_changeset_id": 13037,
        "name": "Broadway \u0026 E Union St",
        "timezone": "America/Los_Angeles",
        "osm_way_id": 440887827,
        "served_by_vehicle_types": [
          "bus"
        ],
        "parent_stop_onestop_id": null,
        "wheelchair_boarding": null,
        "geometry_reversegeo": null,
        "geometry_centroid": {
          "type": "Point",
          "coordinates": [
            -122.320679,
            47.612896
          ]
        },
        "operators_serving_stop": [
          {
            "operator_name": "King County Metro",
            "operator_onestop_id": "o-c23-metrotransit"
          }
        ],
        "routes_serving_stop": [
          {
            "operator_name": "King County Metro",
            "operator_onestop_id": "o-c23-metrotransit",
            "route_name": "9",
            "route_onestop_id": "r-c23n9-9"
          }
        ],
        "title": "s-c23nbe8v1z-broadway~eunionst"
      },
      "type": "Feature",
      "id": "s-c23nbe8v1z-broadway~eunionst"
    },
    {
      "geometry": {
        "type": "Point",
        "coordinates": [
          -122.320702,
          47.6151657
        ]
      },
      "properties": {
        "onestop_id": "s-c23nbs0f3n-broadway~epinest",
        "created_at": "2016-05-04T22:38:31.636Z",
        "updated_at": "2018-11-06T03:08:47.480Z",
        "tags": {
          "zone_id": "1",
          "osm_way_id": "440887827"
        },
        "created_or_updated_in_changeset_id": 13037,
        "name": "Broadway \u0026 E Pine St",
        "timezone": "America/Los_Angeles",
        "osm_way_id": 440887827,
        "served_by_vehicle_types": [
          "bus"
        ],
        "parent_stop_onestop_id": null,
        "wheelchair_boarding": null,
        "geometry_reversegeo": null,
        "geometry_centroid": {
          "type": "Point",
          "coordinates": [
            -122.320702,
            47.6151657
          ]
        },
        "operators_serving_stop": [
          {
            "operator_name": "King County Metro",
            "operator_onestop_id": "o-c23-metrotransit"
          },
          {
            "operator_name": "City of Seattle",
            "operator_onestop_id": "o-c23nb-cityofseattle"
          }
        ],
        "routes_serving_stop": [
          {
            "operator_name": "King County Metro",
            "operator_onestop_id": "o-c23-metrotransit",
            "route_name": "9",
            "route_onestop_id": "r-c23n9-9"
          }
        ],
        "title": "s-c23nbs0f3n-broadway~epinest"
      },
      "type": "Feature",
      "id": "s-c23nbs0f3n-broadway~epinest"
    },
    {
      "geometry": {
        "type": "Point",
        "coordinates": [
          -122.302368,
          47.5837326
        ]
      },
      "properties": {
        "onestop_id": "s-c23n8yq57c-rainieraves~swalkerst",
        "created_at": "2016-05-04T22:38:32.504Z",
        "updated_at": "2018-11-06T02:57:50.940Z",
        "tags": {
          "zone_id": "1",
          "osm_way_id": "607514447"
        },
        "created_or_updated_in_changeset_id": 13037,
        "name": "Rainier Ave S \u0026 S Walker St",
        "timezone": "America/Los_Angeles",
        "osm_way_id": 607514447,
        "served_by_vehicle_types": [
          "bus"
        ],
        "parent_stop_onestop_id": null,
        "wheelchair_boarding": null,
        "geometry_reversegeo": null,
        "geometry_centroid": {
          "type": "Point",
          "coordinates": [
            -122.302368,
            47.5837326
          ]
        },
        "operators_serving_stop": [
          {
            "operator_name": "King County Metro",
            "operator_onestop_id": "o-c23-metrotransit"
          }
        ],
        "routes_serving_stop": [
          {
            "operator_name": "King County Metro",
            "operator_onestop_id": "o-c23-metrotransit",
            "route_name": "9",
            "route_onestop_id": "r-c23n9-9"
          }
        ],
        "title": "s-c23n8yq57c-rainieraves~swalkerst"
      },
      "type": "Feature",
      "id": "s-c23n8yq57c-rainieraves~swalkerst"
    },
    {
      "geometry": {
        "type": "Point",
        "coordinates": [
          -122.288246,
          47.5639381
        ]
      },
      "properties": {
        "onestop_id": "s-c23n96b2j2-rainieraves~sgeneseest",
        "created_at": "2016-05-04T22:38:33.059Z",
        "updated_at": "2018-11-06T03:09:14.074Z",
        "tags": {
          "zone_id": "1",
          "osm_way_id": "304467706"
        },
        "created_or_updated_in_changeset_id": 13037,
        "name": "Rainier Ave S \u0026 S Genesee St",
        "timezone": "America/Los_Angeles",
        "osm_way_id": 304467706,
        "served_by_vehicle_types": [
          "bus"
        ],
        "parent_stop_onestop_id": null,
        "wheelchair_boarding": null,
        "geometry_reversegeo": null,
        "geometry_centroid": {
          "type": "Point",
          "coordinates": [
            -122.288246,
            47.5639381
          ]
        },
        "operators_serving_stop": [
          {
            "operator_name": "King County Metro",
            "operator_onestop_id": "o-c23-metrotransit"
          }
        ],
        "routes_serving_stop": [
          {
            "operator_name": "King County Metro",
            "operator_onestop_id": "o-c23-metrotransit",
            "route_name": "9",
            "route_onestop_id": "r-c23n9-9"
          }
        ],
        "title": "s-c23n96b2j2-rainieraves~sgeneseest"
      },
      "type": "Feature",
      "id": "s-c23n96b2j2-rainieraves~sgeneseest"
    },
    {
      "geometry": {
        "type": "Point",
        "coordinates": [
          -122.320786,
          47.6201553
        ]
      },
      "properties": {
        "onestop_id": "s-c23nbsbxx2-broadwaye~ejohnst",
        "created_at": "2016-05-04T22:38:33.362Z",
        "updated_at": "2018-11-06T03:09:30.318Z",
        "tags": {
          "zone_id": "1",
          "osm_way_id": "428246435"
        },
        "created_or_updated_in_changeset_id": 13037,
        "name": "Broadway  E \u0026 E John St",
        "timezone": "America/Los_Angeles",
        "osm_way_id": 428246435,
        "served_by_vehicle_types": [
          "bus"
        ],
        "parent_stop_onestop_id": null,
        "wheelchair_boarding": null,
        "geometry_reversegeo": null,
        "geometry_centroid": {
          "type": "Point",
          "coordinates": [
            -122.320786,
            47.6201553
          ]
        },
        "operators_serving_stop": [
          {
            "operator_name": "King County Metro",
            "operator_onestop_id": "o-c23-metrotransit"
          }
        ],
        "routes_serving_stop": [
          {
            "operator_name": "King County Metro",
            "operator_onestop_id": "o-c23-metrotransit",
            "route_name": "9",
            "route_onestop_id": "r-c23n9-9"
          }
        ],
        "title": "s-c23nbsbxx2-broadwaye~ejohnst"
      },
      "type": "Feature",
      "id": "s-c23nbsbxx2-broadwaye~ejohnst"
    },
    {
      "geometry": {
        "type": "Point",
        "coordinates": [
          -122.320816,
          47.6221962
        ]
      },
      "properties": {
        "onestop_id": "s-c23nbt2eqk-broadwaye~eharrisonst",
        "created_at": "2016-05-04T22:38:33.365Z",
        "updated_at": "2018-11-06T03:09:30.416Z",
        "tags": {
          "zone_id": "1",
          "osm_way_id": "428098983"
        },
        "created_or_updated_in_changeset_id": 13037,
        "name": "Broadway  E \u0026 E Harrison St",
        "timezone": "America/Los_Angeles",
        "osm_way_id": 428098983,
        "served_by_vehicle_types": [
          "bus"
        ],
        "parent_stop_onestop_id": null,
        "wheelchair_boarding": null,
        "geometry_reversegeo": null,
        "geometry_centroid": {
          "type": "Point",
          "coordinates": [
            -122.320816,
            47.6221962
          ]
        },
        "operators_serving_stop": [
          {
            "operator_name": "King County Metro",
            "operator_onestop_id": "o-c23-metrotransit"
          }
        ],
        "routes_serving_stop": [
          {
            "operator_name": "King County Metro",
            "operator_onestop_id": "o-c23-metrotransit",
            "route_name": "9",
            "route_onestop_id": "r-c23n9-9"
          }
        ],
        "title": "s-c23nbt2eqk-broadwaye~eharrisonst"
      },
      "type": "Feature",
      "id": "s-c23nbt2eqk-broadwaye~eharrisonst"
    },
    {
      "geometry": {
        "type": "Point",
        "coordinates": [
          -122.321014,
          47.6228943
        ]
      },
      "properties": {
        "onestop_id": "s-c23nbt2x3q-broadwaye~erepublicanst",
        "created_at": "2016-05-04T22:38:33.372Z",
        "updated_at": "2018-11-06T03:09:29.642Z",
        "tags": {
          "zone_id": "1",
          "osm_way_id": "428314461"
        },
        "created_or_updated_in_changeset_id": 13037,
        "name": "Broadway  E \u0026 E Republican St",
        "timezone": "America/Los_Angeles",
        "osm_way_id": 428314461,
        "served_by_vehicle_types": [
          "bus"
        ],
        "parent_stop_onestop_id": null,
        "wheelchair_boarding": null,
        "geometry_reversegeo": null,
        "geometry_centroid": {
          "type": "Point",
          "coordinates": [
            -122.321014,
            47.6228943
          ]
        },
        "operators_serving_stop": [
          {
            "operator_name": "King County Metro",
            "operator_onestop_id": "o-c23-metrotransit"
          }
        ],
        "routes_serving_stop": [
          {
            "operator_name": "King County Metro",
            "operator_onestop_id": "o-c23-metrotransit",
            "route_name": "9",
            "route_onestop_id": "r-c23n9-9"
          }
        ],
        "title": "s-c23nbt2x3q-broadwaye~erepublicanst"
      },
      "type": "Feature",
      "id": "s-c23nbt2x3q-broadwaye~erepublicanst"
    },
    {
      "geometry": {
        "type": "Point",
        "coordinates": [
          -122.320992,
          47.6208153
        ]
      },
      "properties": {
        "onestop_id": "s-c23nbt0e67-broadwaye~ethomasst",
        "created_at": "2016-05-04T22:38:33.376Z",
        "updated_at": "2018-11-06T03:09:29.651Z",
        "tags": {
          "zone_id": "1",
          "osm_way_id": "428246433"
        },
        "created_or_updated_in_changeset_id": 13037,
        "name": "Broadway  E \u0026 E Thomas St",
        "timezone": "America/Los_Angeles",
        "osm_way_id": 428246433,
        "served_by_vehicle_types": [
          "bus"
        ],
        "parent_stop_onestop_id": null,
        "wheelchair_boarding": null,
        "geometry_reversegeo": null,
        "geometry_centroid": {
          "type": "Point",
          "coordinates": [
            -122.320992,
            47.6208153
          ]
        },
        "operators_serving_stop": [
          {
            "operator_name": "King County Metro",
            "operator_onestop_id": "o-c23-metrotransit"
          }
        ],
        "routes_serving_stop": [
          {
            "operator_name": "King County Metro",
            "operator_onestop_id": "o-c23-metrotransit",
            "route_name": "9",
            "route_onestop_id": "r-c23n9-9"
          }
        ],
        "title": "s-c23nbt0e67-broadwaye~ethomasst"
      },
      "type": "Feature",
      "id": "s-c23nbt0e67-broadwaye~ethomasst"
    },
    {
      "geometry": {
        "type": "Point",
        "coordinates": [
          -122.309998,
          47.5937271
        ]
      },
      "properties": {
        "onestop_id": "s-c23nbb0rkq-rainieraves~scharlesst",
        "created_at": "2016-05-04T22:38:37.739Z",
        "updated_at": "2018-11-06T02:57:03.981Z",
        "tags": {
          "zone_id": "1",
          "osm_way_id": "497229744"
        },
        "created_or_updated_in_changeset_id": 13037,
        "name": "Rainier Ave S \u0026 S Charles St",
        "timezone": "America/Los_Angeles",
        "osm_way_id": 497229744,
        "served_by_vehicle_types": [
          "bus"
        ],
        "parent_stop_onestop_id": null,
        "wheelchair_boarding": null,
        "geometry_reversegeo": null,
        "geometry_centroid": {
          "type": "Point",
          "coordinates": [
            -122.309998,
            47.5937271
          ]
        },
        "operators_serving_stop": [
          {
            "operator_name": "King County Metro",
            "operator_onestop_id": "o-c23-metrotransit"
          },
          {
            "operator_name": "Sound Transit",
            "operator_onestop_id": "o-c23-soundtransit"
          }
        ],
        "routes_serving_stop": [
          {
            "operator_name": "King County Metro",
            "operator_onestop_id": "o-c23-metrotransit",
            "route_name": "9",
            "route_onestop_id": "r-c23n9-9"
          }
        ],
        "title": "s-c23nbb0rkq-rainieraves~scharlesst"
      },
      "type": "Feature",
      "id": "s-c23nbb0rkq-rainieraves~scharlesst"
    },
    {
      "geometry": {
        "type": "Point",
        "coordinates": [
          -122.307289,
          47.5901756
        ]
      },
      "properties": {
        "onestop_id": "s-c23n8zd8ce-rainieraves~i~90",
        "created_at": "2016-05-04T22:38:37.742Z",
        "updated_at": "2018-11-06T02:57:50.761Z",
        "tags": {
          "zone_id": "1",
          "osm_way_id": "214880496"
        },
        "created_or_updated_in_changeset_id": 13037,
        "name": "Rainier Ave S \u0026 I-90",
        "timezone": "America/Los_Angeles",
        "osm_way_id": 214880496,
        "served_by_vehicle_types": [
          "bus"
        ],
        "parent_stop_onestop_id": null,
        "wheelchair_boarding": null,
        "geometry_reversegeo": null,
        "geometry_centroid": {
          "type": "Point",
          "coordinates": [
            -122.307289,
            47.5901756
          ]
        },
        "operators_serving_stop": [
          {
            "operator_name": "King County Metro",
            "operator_onestop_id": "o-c23-metrotransit"
          }
        ],
        "routes_serving_stop": [
          {
            "operator_name": "King County Metro",
            "operator_onestop_id": "o-c23-metrotransit",
            "route_name": "9",
            "route_onestop_id": "r-c23n9-9"
          }
        ],
        "title": "s-c23n8zd8ce-rainieraves~i~90"
      },
      "type": "Feature",
      "id": "s-c23n8zd8ce-rainieraves~i~90"
    },
    {
      "geometry": {
        "type": "Point",
        "coordinates": [
          -122.289421,
          47.5680389
        ]
      },
      "properties": {
        "onestop_id": "s-c23n95rxcv-rainieraves~sandoverst",
        "created_at": "2016-05-04T22:38:37.760Z",
        "updated_at": "2018-11-06T03:09:58.142Z",
        "tags": {
          "zone_id": "1",
          "osm_way_id": "428099794"
        },
        "created_or_updated_in_changeset_id": 13037,
        "name": "Rainier Ave S \u0026 S Andover St",
        "timezone": "America/Los_Angeles",
        "osm_way_id": 428099794,
        "served_by_vehicle_types": [
          "bus"
        ],
        "parent_stop_onestop_id": null,
        "wheelchair_boarding": null,
        "geometry_reversegeo": null,
        "geometry_centroid": {
          "type": "Point",
          "coordinates": [
            -122.289421,
            47.5680389
          ]
        },
        "operators_serving_stop": [
          {
            "operator_name": "King County Metro",
            "operator_onestop_id": "o-c23-metrotransit"
          }
        ],
        "routes_serving_stop": [
          {
            "operator_name": "King County Metro",
            "operator_onestop_id": "o-c23-metrotransit",
            "route_name": "9",
            "route_onestop_id": "r-c23n9-9"
          }
        ],
        "title": "s-c23n95rxcv-rainieraves~sandoverst"
      },
      "type": "Feature",
      "id": "s-c23n95rxcv-rainieraves~sandoverst"
    },
    {
      "geometry": {
        "type": "Point",
        "coordinates": [
          -122.285583,
          47.5586967
        ]
      },
      "properties": {
        "onestop_id": "s-c23n93f37r-rainieraves~sedmundsst",
        "created_at": "2016-05-04T22:38:37.769Z",
        "updated_at": "2018-11-06T03:09:58.299Z",
        "tags": {
          "zone_id": "1",
          "osm_way_id": "401639204"
        },
        "created_or_updated_in_changeset_id": 13037,
        "name": "Rainier Ave S \u0026 S Edmunds St",
        "timezone": "America/Los_Angeles",
        "osm_way_id": 401639204,
        "served_by_vehicle_types": [
          "bus"
        ],
        "parent_stop_onestop_id": null,
        "wheelchair_boarding": null,
        "geometry_reversegeo": null,
        "geometry_centroid": {
          "type": "Point",
          "coordinates": [
            -122.285583,
            47.5586967
          ]
        },
        "operators_serving_stop": [
          {
            "operator_name": "King County Metro",
            "operator_onestop_id": "o-c23-metrotransit"
          }
        ],
        "routes_serving_stop": [
          {
            "operator_name": "King County Metro",
            "operator_onestop_id": "o-c23-metrotransit",
            "route_name": "9",
            "route_onestop_id": "r-c23n9-9"
          }
        ],
        "title": "s-c23n93f37r-rainieraves~sedmundsst"
      },
      "type": "Feature",
      "id": "s-c23n93f37r-rainieraves~sedmundsst"
    },
    {
      "geometry": {
        "type": "Point",
        "coordinates": [
          -122.277634,
          47.5509262
        ]
      },
      "properties": {
        "onestop_id": "s-c23n982hhx-rainieraves~sorcasst",
        "created_at": "2016-05-04T22:38:37.781Z",
        "updated_at": "2018-11-06T03:09:58.669Z",
        "tags": {
          "zone_id": "1",
          "osm_way_id": "537708597"
        },
        "created_or_updated_in_changeset_id": 13037,
        "name": "Rainier Ave S \u0026 S Orcas St",
        "timezone": "America/Los_Angeles",
        "osm_way_id": 537708597,
        "served_by_vehicle_types": [
          "bus"
        ],
        "parent_stop_onestop_id": null,
        "wheelchair_boarding": null,
        "geometry_reversegeo": null,
        "geometry_centroid": {
          "type": "Point",
          "coordinates": [
            -122.277634,
            47.5509262
          ]
        },
        "operators_serving_stop": [
          {
            "operator_name": "King County Metro",
            "operator_onestop_id": "o-c23-metrotransit"
          }
        ],
        "routes_serving_stop": [
          {
            "operator_name": "King County Metro",
            "operator_onestop_id": "o-c23-metrotransit",
            "route_name": "9",
            "route_onestop_id": "r-c23n9-9"
          }
        ],
        "title": "s-c23n982hhx-rainieraves~sorcasst"
      },
      "type": "Feature",
      "id": "s-c23n982hhx-rainieraves~sorcasst"
    },
    {
      "geometry": {
        "type": "Point",
        "coordinates": [
          -122.275665,
          47.5456696
        ]
      },
      "properties": {
        "onestop_id": "s-c23n3x3td7-rainieraves~sgrahamst",
        "created_at": "2016-05-04T22:38:37.789Z",
        "updated_at": "2018-11-06T03:09:58.864Z",
        "tags": {
          "zone_id": "1",
          "osm_way_id": "563458998"
        },
        "created_or_updated_in_changeset_id": 13037,
        "name": "Rainier Ave S \u0026 S Graham St",
        "timezone": "America/Los_Angeles",
        "osm_way_id": 563458998,
        "served_by_vehicle_types": [
          "bus"
        ],
        "parent_stop_onestop_id": null,
        "wheelchair_boarding": null,
        "geometry_reversegeo": null,
        "geometry_centroid": {
          "type": "Point",
          "coordinates": [
            -122.275665,
            47.5456696
          ]
        },
        "operators_serving_stop": [
          {
            "operator_name": "King County Metro",
            "operator_onestop_id": "o-c23-metrotransit"
          }
        ],
        "routes_serving_stop": [
          {
            "operator_name": "King County Metro",
            "operator_onestop_id": "o-c23-metrotransit",
            "route_name": "9",
            "route_onestop_id": "r-c23n9-9"
          }
        ],
        "title": "s-c23n3x3td7-rainieraves~sgrahamst"
      },
      "type": "Feature",
      "id": "s-c23n3x3td7-rainieraves~sgrahamst"
    },
    {
      "geometry": {
        "type": "Point",
        "coordinates": [
          -122.272743,
          47.5422211
        ]
      },
      "properties": {
        "onestop_id": "s-c23n3wg9w8-rainieraves~shollyst",
        "created_at": "2016-05-04T22:38:37.793Z",
        "updated_at": "2018-11-06T03:09:58.960Z",
        "tags": {
          "zone_id": "1",
          "osm_way_id": "427893640"
        },
        "created_or_updated_in_changeset_id": 13037,
        "name": "Rainier Ave S \u0026 S Holly St",
        "timezone": "America/Los_Angeles",
        "osm_way_id": 427893640,
        "served_by_vehicle_types": [
          "bus"
        ],
        "parent_stop_onestop_id": null,
        "wheelchair_boarding": null,
        "geometry_reversegeo": null,
        "geometry_centroid": {
          "type": "Point",
          "coordinates": [
            -122.272743,
            47.5422211
          ]
        },
        "operators_serving_stop": [
          {
            "operator_name": "King County Metro",
            "operator_onestop_id": "o-c23-metrotransit"
          }
        ],
        "routes_serving_stop": [
          {
            "operator_name": "King County Metro",
            "operator_onestop_id": "o-c23-metrotransit",
            "route_name": "9",
            "route_onestop_id": "r-c23n9-9"
          }
        ],
        "title": "s-c23n3wg9w8-rainieraves~shollyst"
      },
      "type": "Feature",
      "id": "s-c23n3wg9w8-rainieraves~shollyst"
    },
    {
      "geometry": {
        "type": "Point",
        "coordinates": [
          -122.270294,
          47.5366249
        ]
      },
      "properties": {
        "onestop_id": "s-c23n3tv2zt-rainieraves~sothellost",
        "created_at": "2016-05-04T22:38:37.800Z",
        "updated_at": "2018-11-06T03:09:59.154Z",
        "tags": {
          "zone_id": "1",
          "osm_way_id": "427893644"
        },
        "created_or_updated_in_changeset_id": 13037,
        "name": "Rainier Ave S \u0026 S Othello St",
        "timezone": "America/Los_Angeles",
        "osm_way_id": 427893644,
        "served_by_vehicle_types": [
          "bus"
        ],
        "parent_stop_onestop_id": null,
        "wheelchair_boarding": null,
        "geometry_reversegeo": null,
        "geometry_centroid": {
          "type": "Point",
          "coordinates": [
            -122.270294,
            47.5366249
          ]
        },
        "operators_serving_stop": [
          {
            "operator_name": "King County Metro",
            "operator_onestop_id": "o-c23-metrotransit"
          }
        ],
        "routes_serving_stop": [
          {
            "operator_name": "King County Metro",
            "operator_onestop_id": "o-c23-metrotransit",
            "route_name": "9",
            "route_onestop_id": "r-c23n9-9"
          }
        ],
        "title": "s-c23n3tv2zt-rainieraves~sothellost"
      },
      "type": "Feature",
      "id": "s-c23n3tv2zt-rainieraves~sothellost"
    },
    {
      "geometry": {
        "type": "Point",
        "coordinates": [
          -122.270088,
          47.5333481
        ]
      },
      "properties": {
        "onestop_id": "s-c23n3tjwkq-rainieraves~sholdenst",
        "created_at": "2016-05-04T22:38:37.803Z",
        "updated_at": "2018-11-06T03:09:59.254Z",
        "tags": {
          "zone_id": "1",
          "osm_way_id": "382589008"
        },
        "created_or_updated_in_changeset_id": 13037,
        "name": "Rainier Ave S \u0026 S Holden St",
        "timezone": "America/Los_Angeles",
        "osm_way_id": 382589008,
        "served_by_vehicle_types": [
          "bus"
        ],
        "parent_stop_onestop_id": null,
        "wheelchair_boarding": null,
        "geometry_reversegeo": null,
        "geometry_centroid": {
          "type": "Point",
          "coordinates": [
            -122.270088,
            47.5333481
          ]
        },
        "operators_serving_stop": [
          {
            "operator_name": "King County Metro",
            "operator_onestop_id": "o-c23-metrotransit"
          }
        ],
        "routes_serving_stop": [
          {
            "operator_name": "King County Metro",
            "operator_onestop_id": "o-c23-metrotransit",
            "route_name": "9",
            "route_onestop_id": "r-c23n9-9"
          }
        ],
        "title": "s-c23n3tjwkq-rainieraves~sholdenst"
      },
      "type": "Feature",
      "id": "s-c23n3tjwkq-rainieraves~sholdenst"
    },
    {
      "geometry": {
        "type": "Point",
        "coordinates": [
          -122.270088,
          47.5288048
        ]
      },
      "properties": {
        "onestop_id": "s-c23n3smek7-rainieraves~srosest",
        "created_at": "2016-05-04T22:38:37.844Z",
        "updated_at": "2018-11-06T03:09:59.354Z",
        "tags": {
          "zone_id": "1",
          "osm_way_id": "382589008"
        },
        "created_or_updated_in_changeset_id": 13037,
        "name": "Rainier Ave S \u0026 S Rose St",
        "timezone": "America/Los_Angeles",
        "osm_way_id": 382589008,
        "served_by_vehicle_types": [
          "bus"
        ],
        "parent_stop_onestop_id": null,
        "wheelchair_boarding": null,
        "geometry_reversegeo": null,
        "geometry_centroid": {
          "type": "Point",
          "coordinates": [
            -122.270088,
            47.5288048
          ]
        },
        "operators_serving_stop": [
          {
            "operator_name": "King County Metro",
            "operator_onestop_id": "o-c23-metrotransit"
          }
        ],
        "routes_serving_stop": [
          {
            "operator_name": "King County Metro",
            "operator_onestop_id": "o-c23-metrotransit",
            "route_name": "9",
            "route_onestop_id": "r-c23n9-9"
          }
        ],
        "title": "s-c23n3smek7-rainieraves~srosest"
      },
      "type": "Feature",
      "id": "s-c23n3smek7-rainieraves~srosest"
    },
    {
      "geometry": {
        "type": "Point",
        "coordinates": [
          -122.270088,
          47.5259247
        ]
      },
      "properties": {
        "onestop_id": "s-c23n3evds6-rainieraves~scloverdalest",
        "created_at": "2016-05-04T22:38:37.849Z",
        "updated_at": "2018-11-06T03:09:59.452Z",
        "tags": {
          "zone_id": "1",
          "osm_way_id": "427896778"
        },
        "created_or_updated_in_changeset_id": 13037,
        "name": "Rainier Ave S \u0026 S Cloverdale St",
        "timezone": "America/Los_Angeles",
        "osm_way_id": 427896778,
        "served_by_vehicle_types": [
          "bus"
        ],
        "parent_stop_onestop_id": null,
        "wheelchair_boarding": null,
        "geometry_reversegeo": null,
        "geometry_centroid": {
          "type": "Point",
          "coordinates": [
            -122.270088,
            47.5259247
          ]
        },
        "operators_serving_stop": [
          {
            "operator_name": "King County Metro",
            "operator_onestop_id": "o-c23-metrotransit"
          }
        ],
        "routes_serving_stop": [
          {
            "operator_name": "King County Metro",
            "operator_onestop_id": "o-c23-metrotransit",
            "route_name": "9",
            "route_onestop_id": "r-c23n9-9"
          }
        ],
        "title": "s-c23n3evds6-rainieraves~scloverdalest"
      },
      "type": "Feature",
      "id": "s-c23n3evds6-rainieraves~scloverdalest"
    },
    {
      "geometry": {
        "type": "Point",
        "coordinates": [
          -122.26989,
          47.5259705
        ]
      },
      "properties": {
        "onestop_id": "s-c23n3evfc5-rainieraves~cloverdalepls",
        "created_at": "2016-05-04T22:38:37.880Z",
        "updated_at": "2018-11-06T03:10:01.169Z",
        "tags": {
          "zone_id": "1",
          "osm_way_id": "427896768"
        },
        "created_or_updated_in_changeset_id": 13037,
        "name": "Rainier Ave S \u0026 Cloverdale Pl S",
        "timezone": "America/Los_Angeles",
        "osm_way_id": 427896768,
        "served_by_vehicle_types": [
          "bus"
        ],
        "parent_stop_onestop_id": null,
        "wheelchair_boarding": null,
        "geometry_reversegeo": null,
        "geometry_centroid": {
          "type": "Point",
          "coordinates": [
            -122.26989,
            47.5259705
          ]
        },
        "operators_serving_stop": [
          {
            "operator_name": "King County Metro",
            "operator_onestop_id": "o-c23-metrotransit"
          }
        ],
        "routes_serving_stop": [
          {
            "operator_name": "King County Metro",
            "operator_onestop_id": "o-c23-metrotransit",
            "route_name": "9",
            "route_onestop_id": "r-c23n9-9"
          }
        ],
        "title": "s-c23n3evfc5-rainieraves~cloverdalepls"
      },
      "type": "Feature",
      "id": "s-c23n3evfc5-rainieraves~cloverdalepls"
    },
    {
      "geometry": {
        "type": "Point",
        "coordinates": [
          -122.26989,
          47.5339088
        ]
      },
      "properties": {
        "onestop_id": "s-c23n3tmc14-rainieraves~sholdenst",
        "created_at": "2016-05-04T22:38:37.889Z",
        "updated_at": "2018-11-06T03:10:01.363Z",
        "tags": {
          "zone_id": "1",
          "osm_way_id": "161107997"
        },
        "created_or_updated_in_changeset_id": 13037,
        "name": "Rainier Ave S \u0026 S Holden St",
        "timezone": "America/Los_Angeles",
        "osm_way_id": 161107997,
        "served_by_vehicle_types": [
          "bus"
        ],
        "parent_stop_onestop_id": null,
        "wheelchair_boarding": null,
        "geometry_reversegeo": null,
        "geometry_centroid": {
          "type": "Point",
          "coordinates": [
            -122.26989,
            47.5339088
          ]
        },
        "operators_serving_stop": [
          {
            "operator_name": "King County Metro",
            "operator_onestop_id": "o-c23-metrotransit"
          }
        ],
        "routes_serving_stop": [
          {
            "operator_name": "King County Metro",
            "operator_onestop_id": "o-c23-metrotransit",
            "route_name": "9",
            "route_onestop_id": "r-c23n9-9"
          }
        ],
        "title": "s-c23n3tmc14-rainieraves~sholdenst"
      },
      "type": "Feature",
      "id": "s-c23n3tmc14-rainieraves~sholdenst"
    },
    {
      "geometry": {
        "type": "Point",
        "coordinates": [
          -122.270271,
          47.5373726
        ]
      },
      "properties": {
        "onestop_id": "s-c23n3tvt20-rainieraves~sothellost",
        "created_at": "2016-05-04T22:38:37.894Z",
        "updated_at": "2018-11-06T03:10:01.468Z",
        "tags": {
          "zone_id": "1",
          "osm_way_id": "427893645"
        },
        "created_or_updated_in_changeset_id": 13037,
        "name": "Rainier Ave S \u0026 S Othello St",
        "timezone": "America/Los_Angeles",
        "osm_way_id": 427893645,
        "served_by_vehicle_types": [
          "bus"
        ],
        "parent_stop_onestop_id": null,
        "wheelchair_boarding": null,
        "geometry_reversegeo": null,
        "geometry_centroid": {
          "type": "Point",
          "coordinates": [
            -122.270271,
            47.5373726
          ]
        },
        "operators_serving_stop": [
          {
            "operator_name": "King County Metro",
            "operator_onestop_id": "o-c23-metrotransit"
          }
        ],
        "routes_serving_stop": [
          {
            "operator_name": "King County Metro",
            "operator_onestop_id": "o-c23-metrotransit",
            "route_name": "9",
            "route_onestop_id": "r-c23n9-9"
          }
        ],
        "title": "s-c23n3tvt20-rainieraves~sothellost"
      },
      "type": "Feature",
      "id": "s-c23n3tvt20-rainieraves~sothellost"
    },
    {
      "geometry": {
        "type": "Point",
        "coordinates": [
          -122.270996,
          47.5400429
        ]
      },
      "properties": {
        "onestop_id": "s-c23n3wkvmd-rainieraves~sfrontenacst",
        "created_at": "2016-05-04T22:38:37.898Z",
        "updated_at": "2018-11-06T03:10:01.575Z",
        "tags": {
          "zone_id": "1",
          "osm_way_id": "427893640"
        },
        "created_or_updated_in_changeset_id": 13037,
        "name": "Rainier Ave S \u0026 S Frontenac St",
        "timezone": "America/Los_Angeles",
        "osm_way_id": 427893640,
        "served_by_vehicle_types": [
          "bus"
        ],
        "parent_stop_onestop_id": null,
        "wheelchair_boarding": null,
        "geometry_reversegeo": null,
        "geometry_centroid": {
          "type": "Point",
          "coordinates": [
            -122.270996,
            47.5400429
          ]
        },
        "operators_serving_stop": [
          {
            "operator_name": "King County Metro",
            "operator_onestop_id": "o-c23-metrotransit"
          }
        ],
        "routes_serving_stop": [
          {
            "operator_name": "King County Metro",
            "operator_onestop_id": "o-c23-metrotransit",
            "route_name": "9",
            "route_onestop_id": "r-c23n9-9"
          }
        ],
        "title": "s-c23n3wkvmd-rainieraves~sfrontenacst"
      },
      "type": "Feature",
      "id": "s-c23n3wkvmd-rainieraves~sfrontenacst"
    },
    {
      "geometry": {
        "type": "Point",
        "coordinates": [
          -122.272881,
          47.5427284
        ]
      },
      "properties": {
        "onestop_id": "s-c23n3wgs7q-rainieraves~shollyst",
        "created_at": "2016-05-04T22:38:37.903Z",
        "updated_at": "2018-11-06T03:10:01.679Z",
        "tags": {
          "zone_id": "1",
          "osm_way_id": "427893640"
        },
        "created_or_updated_in_changeset_id": 13037,
        "name": "Rainier Ave S \u0026 S Holly St",
        "timezone": "America/Los_Angeles",
        "osm_way_id": 427893640,
        "served_by_vehicle_types": [
          "bus"
        ],
        "parent_stop_onestop_id": null,
        "wheelchair_boarding": null,
        "geometry_reversegeo": null,
        "geometry_centroid": {
          "type": "Point",
          "coordinates": [
            -122.272881,
            47.5427284
          ]
        },
        "operators_serving_stop": [
          {
            "operator_name": "King County Metro",
            "operator_onestop_id": "o-c23-metrotransit"
          }
        ],
        "routes_serving_stop": [
          {
            "operator_name": "King County Metro",
            "operator_onestop_id": "o-c23-metrotransit",
            "route_name": "9",
            "route_onestop_id": "r-c23n9-9"
          }
        ],
        "title": "s-c23n3wgs7q-rainieraves~shollyst"
      },
      "type": "Feature",
      "id": "s-c23n3wgs7q-rainieraves~shollyst"
    },
    {
      "geometry": {
        "type": "Point",
        "coordinates": [
          -122.275703,
          47.5459175
        ]
      },
      "properties": {
        "onestop_id": "s-c23n3x3rwn-rainieraves~sgrahamst",
        "created_at": "2016-05-04T22:38:37.908Z",
        "updated_at": "2018-11-06T03:10:01.785Z",
        "tags": {
          "zone_id": "1",
          "osm_way_id": "427893642"
        },
        "created_or_updated_in_changeset_id": 13037,
        "name": "Rainier Ave S \u0026 S Graham St",
        "timezone": "America/Los_Angeles",
        "osm_way_id": 427893642,
        "served_by_vehicle_types": [
          "bus"
        ],
        "parent_stop_onestop_id": null,
        "wheelchair_boarding": null,
        "geometry_reversegeo": null,
        "geometry_centroid": {
          "type": "Point",
          "coordinates": [
            -122.275703,
            47.5459175
          ]
        },
        "operators_serving_stop": [
          {
            "operator_name": "King County Metro",
            "operator_onestop_id": "o-c23-metrotransit"
          }
        ],
        "routes_serving_stop": [
          {
            "operator_name": "King County Metro",
            "operator_onestop_id": "o-c23-metrotransit",
            "route_name": "9",
            "route_onestop_id": "r-c23n9-9"
          }
        ],
        "title": "s-c23n3x3rwn-rainieraves~sgrahamst"
      },
      "type": "Feature",
      "id": "s-c23n3x3rwn-rainieraves~sgrahamst"
    },
    {
      "geometry": {
        "type": "Point",
        "coordinates": [
          -122.277718,
          47.5514755
        ]
      },
      "properties": {
        "onestop_id": "s-c23n982p6m-rainieraves~sorcasst",
        "created_at": "2016-05-04T22:38:37.918Z",
        "updated_at": "2018-11-06T03:10:02.209Z",
        "tags": {
          "zone_id": "1",
          "osm_way_id": "537708597"
        },
        "created_or_updated_in_changeset_id": 13037,
        "name": "Rainier Ave S \u0026 S Orcas St",
        "timezone": "America/Los_Angeles",
        "osm_way_id": 537708597,
        "served_by_vehicle_types": [
          "bus"
        ],
        "parent_stop_onestop_id": null,
        "wheelchair_boarding": null,
        "geometry_reversegeo": null,
        "geometry_centroid": {
          "type": "Point",
          "coordinates": [
            -122.277718,
            47.5514755
          ]
        },
        "operators_serving_stop": [
          {
            "operator_name": "King County Metro",
            "operator_onestop_id": "o-c23-metrotransit"
          }
        ],
        "routes_serving_stop": [
          {
            "operator_name": "King County Metro",
            "operator_onestop_id": "o-c23-metrotransit",
            "route_name": "9",
            "route_onestop_id": "r-c23n9-9"
          }
        ],
        "title": "s-c23n982p6m-rainieraves~sorcasst"
      },
      "type": "Feature",
      "id": "s-c23n982p6m-rainieraves~sorcasst"
    },
    {
      "geometry": {
        "type": "Point",
        "coordinates": [
          -122.285484,
          47.5589104
        ]
      },
      "properties": {
        "onestop_id": "s-c23n93f6tx-rainieraves~sedmundsst",
        "created_at": "2016-05-04T22:38:37.934Z",
        "updated_at": "2018-11-06T03:10:03.111Z",
        "tags": {
          "zone_id": "1",
          "osm_way_id": "497038704"
        },
        "created_or_updated_in_changeset_id": 13037,
        "name": "Rainier Ave S \u0026 S Edmunds St",
        "timezone": "America/Los_Angeles",
        "osm_way_id": 497038704,
        "served_by_vehicle_types": [
          "bus"
        ],
        "parent_stop_onestop_id": null,
        "wheelchair_boarding": null,
        "geometry_reversegeo": null,
        "geometry_centroid": {
          "type": "Point",
          "coordinates": [
            -122.285484,
            47.5589104
          ]
        },
        "operators_serving_stop": [
          {
            "operator_name": "King County Metro",
            "operator_onestop_id": "o-c23-metrotransit"
          }
        ],
        "routes_serving_stop": [
          {
            "operator_name": "King County Metro",
            "operator_onestop_id": "o-c23-metrotransit",
            "route_name": "9",
            "route_onestop_id": "r-c23n9-9"
          }
        ],
        "title": "s-c23n93f6tx-rainieraves~sedmundsst"
      },
      "type": "Feature",
      "id": "s-c23n93f6tx-rainieraves~sedmundsst"
    },
    {
      "geometry": {
        "type": "Point",
        "coordinates": [
          -122.288193,
          47.5645103
        ]
      },
      "properties": {
        "onestop_id": "s-c23n96b7q5-rainieraves~sgeneseest",
        "created_at": "2016-05-04T22:38:37.939Z",
        "updated_at": "2018-11-06T03:10:03.549Z",
        "tags": {
          "zone_id": "1",
          "osm_way_id": "428099799"
        },
        "created_or_updated_in_changeset_id": 13037,
        "name": "Rainier Ave S \u0026 S Genesee St",
        "timezone": "America/Los_Angeles",
        "osm_way_id": 428099799,
        "served_by_vehicle_types": [
          "bus"
        ],
        "parent_stop_onestop_id": null,
        "wheelchair_boarding": null,
        "geometry_reversegeo": null,
        "geometry_centroid": {
          "type": "Point",
          "coordinates": [
            -122.288193,
            47.5645103
          ]
        },
        "operators_serving_stop": [
          {
            "operator_name": "King County Metro",
            "operator_onestop_id": "o-c23-metrotransit"
          }
        ],
        "routes_serving_stop": [
          {
            "operator_name": "King County Metro",
            "operator_onestop_id": "o-c23-metrotransit",
            "route_name": "9",
            "route_onestop_id": "r-c23n9-9"
          }
        ],
        "title": "s-c23n96b7q5-rainieraves~sgeneseest"
      },
      "type": "Feature",
      "id": "s-c23n96b7q5-rainieraves~sgeneseest"
    },
    {
      "geometry": {
        "type": "Point",
        "coordinates": [
          -122.289574,
          47.5685463
        ]
      },
      "properties": {
        "onestop_id": "s-c23n95x6y7-rainieraves~sandoverst",
        "created_at": "2016-05-04T22:38:37.943Z",
        "updated_at": "2018-11-06T03:10:03.559Z",
        "tags": {
          "zone_id": "1",
          "osm_way_id": "428099785"
        },
        "created_or_updated_in_changeset_id": 13037,
        "name": "Rainier Ave S \u0026 S Andover St",
        "timezone": "America/Los_Angeles",
        "osm_way_id": 428099785,
        "served_by_vehicle_types": [
          "bus"
        ],
        "parent_stop_onestop_id": null,
        "wheelchair_boarding": null,
        "geometry_reversegeo": null,
        "geometry_centroid": {
          "type": "Point",
          "coordinates": [
            -122.289574,
            47.5685463
          ]
        },
        "operators_serving_stop": [
          {
            "operator_name": "King County Metro",
            "operator_onestop_id": "o-c23-metrotransit"
          }
        ],
        "routes_serving_stop": [
          {
            "operator_name": "King County Metro",
            "operator_onestop_id": "o-c23-metrotransit",
            "route_name": "9",
            "route_onestop_id": "r-c23n9-9"
          }
        ],
        "title": "s-c23n95x6y7-rainieraves~sandoverst"
      },
      "type": "Feature",
      "id": "s-c23n95x6y7-rainieraves~sandoverst"
    },
    {
      "geometry": {
        "type": "Point",
        "coordinates": [
          -122.297401,
          47.577507
        ]
      },
      "properties": {
        "onestop_id": "s-c23n9j1z04-rainieraves~mountbakertransitcenter~bay1",
        "created_at": "2016-05-04T22:38:37.961Z",
        "updated_at": "2018-11-06T02:57:47.120Z",
        "tags": {
          "zone_id": "1",
          "osm_way_id": "53721048"
        },
        "created_or_updated_in_changeset_id": 13037,
        "name": "Rainier Ave S \u0026 Mount Baker Transit Center - Bay 1 - Bay 1",
        "timezone": "America/Los_Angeles",
        "osm_way_id": 53721048,
        "served_by_vehicle_types": [
          "bus"
        ],
        "parent_stop_onestop_id": null,
        "wheelchair_boarding": null,
        "geometry_reversegeo": null,
        "geometry_centroid": {
          "type": "Point",
          "coordinates": [
            -122.297401,
            47.577507
          ]
        },
        "operators_serving_stop": [
          {
            "operator_name": "King County Metro",
            "operator_onestop_id": "o-c23-metrotransit"
          }
        ],
        "routes_serving_stop": [
          {
            "operator_name": "King County Metro",
            "operator_onestop_id": "o-c23-metrotransit",
            "route_name": "9",
            "route_onestop_id": "r-c23n9-9"
          }
        ],
        "title": "s-c23n9j1z04-rainieraves~mountbakertransitcenter~bay1"
      },
      "type": "Feature",
      "id": "s-c23n9j1z04-rainieraves~mountbakertransitcenter~bay1"
    },
    {
      "geometry": {
        "type": "Point",
        "coordinates": [
          -122.307182,
          47.5903282
        ]
      },
      "properties": {
        "onestop_id": "s-c23n8zd9u0-rainieraves~i~90",
        "created_at": "2016-05-04T22:38:37.974Z",
        "updated_at": "2018-11-06T02:57:47.169Z",
        "tags": {
          "zone_id": "1",
          "osm_way_id": "214880496"
        },
        "created_or_updated_in_changeset_id": 13037,
        "name": "Rainier Ave S \u0026 I-90",
        "timezone": "America/Los_Angeles",
        "osm_way_id": 214880496,
        "served_by_vehicle_types": [
          "bus"
        ],
        "parent_stop_onestop_id": null,
        "wheelchair_boarding": null,
        "geometry_reversegeo": null,
        "geometry_centroid": {
          "type": "Point",
          "coordinates": [
            -122.307182,
            47.5903282
          ]
        },
        "operators_serving_stop": [
          {
            "operator_name": "King County Metro",
            "operator_onestop_id": "o-c23-metrotransit"
          }
        ],
        "routes_serving_stop": [
          {
            "operator_name": "King County Metro",
            "operator_onestop_id": "o-c23-metrotransit",
            "route_name": "9",
            "route_onestop_id": "r-c23n9-9"
          }
        ],
        "title": "s-c23n8zd9u0-rainieraves~i~90"
      },
      "type": "Feature",
      "id": "s-c23n8zd9u0-rainieraves~i~90"
    },
    {
      "geometry": {
        "type": "Point",
        "coordinates": [
          -122.309624,
          47.5935364
        ]
      },
      "properties": {
        "onestop_id": "s-c23nbb0u7n-rainieraves~snormanst",
        "created_at": "2016-05-04T22:38:37.995Z",
        "updated_at": "2018-11-05T19:38:07.443Z",
        "tags": {
          "zone_id": "1",
          "osm_way_id": "497229741"
        },
        "created_or_updated_in_changeset_id": 11881,
        "name": "Rainier Ave S \u0026 S Norman St",
        "timezone": "America/Los_Angeles",
        "osm_way_id": 497229741,
        "served_by_vehicle_types": [
          "bus"
        ],
        "parent_stop_onestop_id": null,
        "wheelchair_boarding": null,
        "geometry_reversegeo": null,
        "geometry_centroid": {
          "type": "Point",
          "coordinates": [
            -122.309624,
            47.5935364
          ]
        },
        "operators_serving_stop": [
          {
            "operator_name": "King County Metro",
            "operator_onestop_id": "o-c23-metrotransit"
          },
          {
            "operator_name": "Sound Transit",
            "operator_onestop_id": "o-c23-soundtransit"
          }
        ],
        "routes_serving_stop": [
          {
            "operator_name": "King County Metro",
            "operator_onestop_id": "o-c23-metrotransit",
            "route_name": "9",
            "route_onestop_id": "r-c23n9-9"
          }
        ],
        "title": "s-c23nbb0u7n-rainieraves~snormanst"
      },
      "type": "Feature",
      "id": "s-c23nbb0u7n-rainieraves~snormanst"
    }
  ],
  "meta": {
    "sort_key": "id",
    "sort_order": "asc",
    "per_page": 50,
    "offset": 0,
    "next": "https://api.transit.land/api/v1/stops.geojson?offset=50\u0026per_page=50\u0026served_by=r-c23n9-9\u0026sort_key=id\u0026sort_order=asc"
  },
  "type": "FeatureCollection"
}